{"pid":0,"tid":140203741341248,"ts":7345115774345,"dur":525404,"ph":"X","name":"alloc"},
{"pid":0,"tid":140203732948544,"ts":7345115745219,"dur":559713,"ph":"X","name":"alloc"},
{"pid":0,"tid":140203724555840,"ts":7345115742275,"dur":563980,"ph":"X","name":"alloc"},
{"pid":0,"tid":140206232107904,"ts":7345116320061,"dur":719210,"ph":"X","name":"readfile"},
{"pid":0,"tid":140206232107904,"ts":7345117039295,"dur":2585665,"ph":"X","name":"presort"},
{"pid":0,"tid":"exchange_ext","ts":7345119624991,"dur":66,"ph":"X","name":"exchange_ext"},
{"pid":0,"tid":"exchange_keep","ts":7345119625062,"dur":15,"ph":"X","name":"exchange_keep"},
{"pid":0,"tid":140206232107904,"ts":7345119732113,"dur":0,"ph":"X","name":"precopy"},
{"pid":0,"tid":"recv_buf","ts":7345119732112,"dur":148271,"ph":"X","name":"recv_buf"},
{"pid":0,"tid":140206232107904,"ts":7345119880391,"dur":378608,"ph":"X","name":"merge"},
{"pid":0,"tid":"send_buf","ts":7345119732112,"dur":526903,"ph":"X","name":"send_buf"},
{"pid":0,"tid":"exchange_ext","ts":7345120784858,"dur":17,"ph":"X","name":"exchange_ext"},
{"pid":0,"tid":"exchange_keep","ts":7345120784883,"dur":6,"ph":"X","name":"exchange_keep"},
{"pid":0,"tid":140206232107904,"ts":7345120831281,"dur":0,"ph":"X","name":"precopy"},
{"pid":0,"tid":"recv_buf","ts":7345120831280,"dur":303704,"ph":"X","name":"recv_buf"},
{"pid":0,"tid":140206232107904,"ts":7345121134992,"dur":340075,"ph":"X","name":"merge"},
{"pid":0,"tid":"send_buf","ts":7345120831280,"dur":643806,"ph":"X","name":"send_buf"},
{"pid":0,"tid":"exchange_ext","ts":7345122113873,"dur":23,"ph":"X","name":"exchange_ext"},
{"pid":0,"tid":"exchange_keep","ts":7345122113899,"dur":5,"ph":"X","name":"exchange_keep"},
{"pid":0,"tid":140206232107904,"ts":7345122233287,"dur":0,"ph":"X","name":"precopy"},
{"pid":0,"tid":"recv_buf","ts":7345122233287,"dur":61822,"ph":"X","name":"recv_buf"},
{"pid":0,"tid":140206232107904,"ts":7345122295116,"dur":284090,"ph":"X","name":"merge"},
{"pid":0,"tid":"send_buf","ts":7345122233286,"dur":345946,"ph":"X","name":"send_buf"},
{"pid":0,"tid":"exchange_ext","ts":7345123059956,"dur":22,"ph":"X","name":"exchange_ext"},
{"pid":0,"tid":"exchange_keep","ts":7345123059993,"dur":6,"ph":"X","name":"exchange_keep"},
{"pid":0,"tid":140206232107904,"ts":7345123098387,"dur":0,"ph":"X","name":"precopy"},
{"pid":0,"tid":"recv_buf","ts":7345123098387,"dur":38885,"ph":"X","name":"recv_buf"},
{"pid":0,"tid":140206232107904,"ts":7345123137276,"dur":258826,"ph":"X","name":"merge"},
{"pid":0,"tid":"send_buf","ts":7345123098386,"dur":297735,"ph":"X","name":"send_buf"},
{"pid":0,"tid":140206232107904,"ts":7345123464145,"dur":3836908,"ph":"X","name":"writefile"},
{"pid":1,"tid":140290777015872,"ts":7345115744364,"dur":447112,"ph":"X","name":"alloc"},
{"pid":1,"tid":140290760230464,"ts":7345115754398,"dur":443484,"ph":"X","name":"alloc"},
{"pid":1,"tid":140290768623168,"ts":7345115764361,"dur":456233,"ph":"X","name":"alloc"},
{"pid":1,"tid":140293267782528,"ts":7345116320059,"dur":80065,"ph":"X","name":"readfile"},
{"pid":1,"tid":140293267782528,"ts":7345116400149,"dur":2580925,"ph":"X","name":"presort"},
{"pid":1,"tid":"exchange_ext","ts":7345118981101,"dur":643926,"ph":"X","name":"exchange_ext"},
{"pid":1,"tid":"exchange_keep","ts":7345119625031,"dur":43,"ph":"X","name":"exchange_keep"},
{"pid":1,"tid":140293267782528,"ts":7345119761164,"dur":0,"ph":"X","name":"precopy"},
{"pid":1,"tid":"recv_buf","ts":7345119761164,"dur":77186,"ph":"X","name":"recv_buf"},
{"pid":1,"tid":140293267782528,"ts":7345119838357,"dur":375390,"ph":"X","name":"merge"},
{"pid":1,"tid":"send_buf","ts":7345119761163,"dur":452607,"ph":"X","name":"send_buf"},
{"pid":1,"tid":"exchange_ext","ts":7345120259123,"dur":25,"ph":"X","name":"exchange_ext"},
{"pid":1,"tid":"exchange_keep","ts":7345120259153,"dur":5,"ph":"X","name":"exchange_keep"},
{"pid":1,"tid":140293267782528,"ts":7345120326867,"dur":0,"ph":"X","name":"precopy"},
{"pid":1,"tid":"recv_buf","ts":7345120326867,"dur":184833,"ph":"X","name":"recv_buf"},
{"pid":1,"tid":140293267782528,"ts":7345120511707,"dur":97073,"ph":"X","name":"merge"},
{"pid":1,"tid":"send_buf","ts":7345120326866,"dur":281936,"ph":"X","name":"send_buf"},
{"pid":1,"tid":"exchange_ext","ts":7345120784861,"dur":18,"ph":"X","name":"exchange_ext"},
{"pid":1,"tid":"exchange_keep","ts":7345120784883,"dur":5,"ph":"X","name":"exchange_keep"},
{"pid":1,"tid":140293267782528,"ts":7345120832635,"dur":6,"ph":"X","name":"precopy"},
{"pid":1,"tid":"recv_buf","ts":7345120832635,"dur":272467,"ph":"X","name":"recv_buf"},
{"pid":1,"tid":140293267782528,"ts":7345121105109,"dur":356114,"ph":"X","name":"merge"},
{"pid":1,"tid":"send_buf","ts":7345120832635,"dur":628609,"ph":"X","name":"send_buf"},
{"pid":1,"tid":"exchange_ext","ts":7345121475138,"dur":21,"ph":"X","name":"exchange_ext"},
{"pid":1,"tid":"exchange_keep","ts":7345121475161,"dur":7,"ph":"X","name":"exchange_keep"},
{"pid":1,"tid":140293267782528,"ts":7345121565173,"dur":0,"ph":"X","name":"precopy"},
{"pid":1,"tid":"recv_buf","ts":7345121565173,"dur":187488,"ph":"X","name":"recv_buf"},
{"pid":1,"tid":140293267782528,"ts":7345121752668,"dur":189104,"ph":"X","name":"merge"},
{"pid":1,"tid":"send_buf","ts":7345121565172,"dur":376622,"ph":"X","name":"send_buf"},
{"pid":1,"tid":"exchange_ext","ts":7345122113872,"dur":19,"ph":"X","name":"exchange_ext"},
{"pid":1,"tid":"exchange_keep","ts":7345122113894,"dur":8,"ph":"X","name":"exchange_keep"},
{"pid":1,"tid":140293267782528,"ts":7345122156985,"dur":27638,"ph":"X","name":"precopy"},
{"pid":1,"tid":"recv_buf","ts":7345122156985,"dur":76297,"ph":"X","name":"recv_buf"},
{"pid":1,"tid":140293267782528,"ts":7345122233289,"dur":130158,"ph":"X","name":"merge"},
{"pid":1,"tid":"send_buf","ts":7345122156984,"dur":206486,"ph":"X","name":"send_buf"},
{"pid":1,"tid":"exchange_ext","ts":7345122712115,"dur":17,"ph":"X","name":"exchange_ext"},
{"pid":1,"tid":"exchange_keep","ts":7345122712136,"dur":20,"ph":"X","name":"exchange_keep"},
{"pid":1,"tid":140293267782528,"ts":7345122736630,"dur":0,"ph":"X","name":"precopy"},
{"pid":1,"tid":"recv_buf","ts":7345122736630,"dur":63640,"ph":"X","name":"recv_buf"},
{"pid":1,"tid":140293267782528,"ts":7345122800277,"dur":195841,"ph":"X","name":"merge"},
{"pid":1,"tid":"send_buf","ts":7345122736630,"dur":259511,"ph":"X","name":"send_buf"},
{"pid":1,"tid":"exchange_ext","ts":7345123059955,"dur":20,"ph":"X","name":"exchange_ext"},
{"pid":1,"tid":"exchange_keep","ts":7345123059977,"dur":19,"ph":"X","name":"exchange_keep"},
{"pid":1,"tid":140293267782528,"ts":7345123082736,"dur":36486,"ph":"X","name":"precopy"},
{"pid":1,"tid":"recv_buf","ts":7345123082736,"dur":57117,"ph":"X","name":"recv_buf"},
{"pid":1,"tid":140293267782528,"ts":7345123139859,"dur":63497,"ph":"X","name":"merge"},
{"pid":1,"tid":"send_buf","ts":7345123082736,"dur":120641,"ph":"X","name":"send_buf"},
{"pid":1,"tid":"exchange_ext","ts":7345123396177,"dur":17,"ph":"X","name":"exchange_ext"},
{"pid":1,"tid":"exchange_keep","ts":7345123396196,"dur":5,"ph":"X","name":"exchange_keep"},
{"pid":1,"tid":140293267782528,"ts":7345123396204,"dur":51464,"ph":"X","name":"precopy"},
{"pid":1,"tid":"recv_buf","ts":7345123396204,"dur":51502,"ph":"X","name":"recv_buf"},
{"pid":1,"tid":140293267782528,"ts":7345123447709,"dur":0,"ph":"X","name":"merge"},
{"pid":1,"tid":"send_buf","ts":7345123396204,"dur":51507,"ph":"X","name":"send_buf"},
{"pid":1,"tid":140293267782528,"ts":7345123464145,"dur":3977064,"ph":"X","name":"writefile"},
{"pid":2,"tid":140141612820032,"ts":7345115754330,"dur":548509,"ph":"X","name":"alloc"},
{"pid":2,"tid":140141629605440,"ts":7345115774331,"dur":532117,"ph":"X","name":"alloc"},
{"pid":2,"tid":140141621212736,"ts":7345115764333,"dur":546499,"ph":"X","name":"alloc"},
{"pid":2,"tid":140144120372096,"ts":7345116320061,"dur":212298,"ph":"X","name":"readfile"},
{"pid":2,"tid":140144120372096,"ts":7345116532383,"dur":2693599,"ph":"X","name":"presort"},
{"pid":2,"tid":"exchange_ext","ts":7345119226010,"dur":53,"ph":"X","name":"exchange_ext"},
{"pid":2,"tid":"exchange_keep","ts":7345119226066,"dur":9,"ph":"X","name":"exchange_keep"},
{"pid":2,"tid":140144120372096,"ts":7345119475679,"dur":0,"ph":"X","name":"precopy"},
{"pid":2,"tid":"recv_buf","ts":7345119475679,"dur":131038,"ph":"X","name":"recv_buf"},
{"pid":2,"tid":140144120372096,"ts":7345119606725,"dur":379838,"ph":"X","name":"merge"},
{"pid":2,"tid":"send_buf","ts":7345119475678,"dur":510907,"ph":"X","name":"send_buf"},
{"pid":2,"tid":"exchange_ext","ts":7345120259128,"dur":21,"ph":"X","name":"exchange_ext"},
{"pid":2,"tid":"exchange_keep","ts":7345120259156,"dur":5,"ph":"X","name":"exchange_keep"},
{"pid":2,"tid":140144120372096,"ts":7345120305282,"dur":0,"ph":"X","name":"precopy"},
{"pid":2,"tid":"recv_buf","ts":7345120305281,"dur":240595,"ph":"X","name":"recv_buf"},
{"pid":2,"tid":140144120372096,"ts":7345120545884,"dur":199703,"ph":"X","name":"merge"},
{"pid":2,"tid":"send_buf","ts":7345120305281,"dur":440334,"ph":"X","name":"send_buf"},
{"pid":2,"tid":"exchange_ext","ts":7345120784858,"dur":17,"ph":"X","name":"exchange_ext"},
{"pid":2,"tid":"exchange_keep","ts":7345120784879,"dur":4,"ph":"X","name":"exchange_keep"},
{"pid":2,"tid":140144120372096,"ts":7345120867936,"dur":0,"ph":"X","name":"precopy"},
{"pid":2,"tid":"recv_buf","ts":7345120867936,"dur":263332,"ph":"X","name":"recv_buf"},
{"pid":2,"tid":140144120372096,"ts":7345121131277,"dur":199173,"ph":"X","name":"merge"},
{"pid":2,"tid":"send_buf","ts":7345120867935,"dur":462541,"ph":"X","name":"send_buf"},
{"pid":2,"tid":"exchange_ext","ts":7345121475139,"dur":19,"ph":"X","name":"exchange_ext"},
{"pid":2,"tid":"exchange_keep","ts":7345121475165,"dur":5,"ph":"X","name":"exchange_keep"},
{"pid":2,"tid":140144120372096,"ts":7345121518152,"dur":45,"ph":"X","name":"precopy"},
{"pid":2,"tid":"recv_buf","ts":7345121518152,"dur":262771,"ph":"X","name":"recv_buf"},
{"pid":2,"tid":140144120372096,"ts":7345121780932,"dur":305734,"ph":"X","name":"merge"},
{"pid":2,"tid":"send_buf","ts":7345121518152,"dur":568535,"ph":"X","name":"send_buf"},
{"pid":2,"tid":"exchange_ext","ts":7345122113873,"dur":22,"ph":"X","name":"exchange_ext"},
{"pid":2,"tid":"exchange_keep","ts":7345122113898,"dur":4,"ph":"X","name":"exchange_keep"},
{"pid":2,"tid":140144120372096,"ts":7345122154799,"dur":0,"ph":"X","name":"precopy"},
{"pid":2,"tid":"recv_buf","ts":7345122154799,"dur":282645,"ph":"X","name":"recv_buf"},
{"pid":2,"tid":140144120372096,"ts":7345122437452,"dur":200072,"ph":"X","name":"merge"},
{"pid":2,"tid":"send_buf","ts":7345122154798,"dur":482751,"ph":"X","name":"send_buf"},
{"pid":2,"tid":"exchange_ext","ts":7345122712114,"dur":16,"ph":"X","name":"exchange_ext"},
{"pid":2,"tid":"exchange_keep","ts":7345122712133,"dur":21,"ph":"X","name":"exchange_keep"},
{"pid":2,"tid":140144120372096,"ts":7345122795844,"dur":34100,"ph":"X","name":"precopy"},
{"pid":2,"tid":"recv_buf","ts":7345122795844,"dur":100038,"ph":"X","name":"recv_buf"},
{"pid":2,"tid":140144120372096,"ts":7345122895889,"dur":144750,"ph":"X","name":"merge"},
{"pid":2,"tid":"send_buf","ts":7345122795844,"dur":244813,"ph":"X","name":"send_buf"},
{"pid":2,"tid":"exchange_ext","ts":7345123059956,"dur":22,"ph":"X","name":"exchange_ext"},
{"pid":2,"tid":"exchange_keep","ts":7345123059982,"dur":4,"ph":"X","name":"exchange_keep"},
{"pid":2,"tid":140144120372096,"ts":7345123059990,"dur":95903,"ph":"X","name":"precopy"},
{"pid":2,"tid":"recv_buf","ts":7345123059990,"dur":95938,"ph":"X","name":"recv_buf"},
{"pid":2,"tid":140144120372096,"ts":7345123155930,"dur":0,"ph":"X","name":"merge"},
{"pid":2,"tid":"send_buf","ts":7345123059989,"dur":95944,"ph":"X","name":"send_buf"},
{"pid":2,"tid":"exchange_ext","ts":7345123396178,"dur":16,"ph":"X","name":"exchange_ext"},
{"pid":2,"tid":"exchange_keep","ts":7345123396198,"dur":4,"ph":"X","name":"exchange_keep"},
{"pid":2,"tid":140144120372096,"ts":7345123464146,"dur":3836899,"ph":"X","name":"writefile"},
{"pid":3,"tid":140170053891648,"ts":7345115784328,"dur":487744,"ph":"X","name":"alloc"},
{"pid":3,"tid":140170037106240,"ts":7345115751088,"dur":536444,"ph":"X","name":"alloc"},
{"pid":3,"tid":140170045498944,"ts":7345115764333,"dur":541746,"ph":"X","name":"alloc"},
{"pid":3,"tid":140172544658304,"ts":7345116320061,"dur":206071,"ph":"X","name":"readfile"},
{"pid":3,"tid":140172544658304,"ts":7345116526147,"dur":2618873,"ph":"X","name":"presort"},
{"pid":3,"tid":"exchange_ext","ts":7345119145048,"dur":80999,"ph":"X","name":"exchange_ext"},
{"pid":3,"tid":"exchange_keep","ts":7345119226053,"dur":20,"ph":"X","name":"exchange_keep"},
{"pid":3,"tid":140172544658304,"ts":7345119476423,"dur":0,"ph":"X","name":"precopy"},
{"pid":3,"tid":"recv_buf","ts":7345119476423,"dur":131224,"ph":"X","name":"recv_buf"},
{"pid":3,"tid":140172544658304,"ts":7345119607653,"dur":373585,"ph":"X","name":"merge"},
{"pid":3,"tid":"send_buf","ts":7345119476423,"dur":504838,"ph":"X","name":"send_buf"},
{"pid":3,"tid":"exchange_ext","ts":7345120259128,"dur":21,"ph":"X","name":"exchange_ext"},
{"pid":3,"tid":"exchange_keep","ts":7345120259156,"dur":5,"ph":"X","name":"exchange_keep"},
{"pid":3,"tid":140172544658304,"ts":7345120418511,"dur":0,"ph":"X","name":"precopy"},
{"pid":3,"tid":"recv_buf","ts":7345120418511,"dur":166629,"ph":"X","name":"recv_buf"},
{"pid":3,"tid":140172544658304,"ts":7345120585149,"dur":189102,"ph":"X","name":"merge"},
{"pid":3,"tid":"send_buf","ts":7345120418510,"dur":355766,"ph":"X","name":"send_buf"},
{"pid":3,"tid":"exchange_ext","ts":7345120784858,"dur":17,"ph":"X","name":"exchange_ext"},
{"pid":3,"tid":"exchange_keep","ts":7345120784879,"dur":4,"ph":"X","name":"exchange_keep"},
{"pid":3,"tid":140172544658304,"ts":7345120998965,"dur":0,"ph":"X","name":"precopy"},
{"pid":3,"tid":"recv_buf","ts":7345120998965,"dur":142757,"ph":"X","name":"recv_buf"},
{"pid":3,"tid":140172544658304,"ts":7345121141730,"dur":197083,"ph":"X","name":"merge"},
{"pid":3,"tid":"send_buf","ts":7345120998965,"dur":339859,"ph":"X","name":"send_buf"},
{"pid":3,"tid":"exchange_ext","ts":7345121475139,"dur":18,"ph":"X","name":"exchange_ext"},
{"pid":3,"tid":"exchange_keep","ts":7345121475161,"dur":7,"ph":"X","name":"exchange_keep"},
{"pid":3,"tid":140172544658304,"ts":7345121509886,"dur":0,"ph":"X","name":"precopy"},
{"pid":3,"tid":"recv_buf","ts":7345121509886,"dur":261924,"ph":"X","name":"recv_buf"},
{"pid":3,"tid":140172544658304,"ts":7345121771818,"dur":162231,"ph":"X","name":"merge"},
{"pid":3,"tid":"send_buf","ts":7345121509885,"dur":424189,"ph":"X","name":"send_buf"},
{"pid":3,"tid":"exchange_ext","ts":7345122113873,"dur":21,"ph":"X","name":"exchange_ext"},
{"pid":3,"tid":"exchange_keep","ts":7345122113897,"dur":4,"ph":"X","name":"exchange_keep"},
{"pid":3,"tid":140172544658304,"ts":7345122323627,"dur":40,"ph":"X","name":"precopy"},
{"pid":3,"tid":"recv_buf","ts":7345122323627,"dur":124630,"ph":"X","name":"recv_buf"},
{"pid":3,"tid":140172544658304,"ts":7345122448265,"dur":259415,"ph":"X","name":"merge"},
{"pid":3,"tid":"send_buf","ts":7345122323627,"dur":384077,"ph":"X","name":"send_buf"},
{"pid":3,"tid":"exchange_ext","ts":7345122712112,"dur":55,"ph":"X","name":"exchange_ext"},
{"pid":3,"tid":"exchange_keep","ts":7345122712169,"dur":6,"ph":"X","name":"exchange_keep"},
{"pid":3,"tid":"exchange_ext","ts":7345123059956,"dur":22,"ph":"X","name":"exchange_ext"},
{"pid":3,"tid":"exchange_keep","ts":7345123059981,"dur":5,"ph":"X","name":"exchange_keep"},
{"pid":3,"tid":"exchange_ext","ts":7345123396179,"dur":15,"ph":"X","name":"exchange_ext"},
{"pid":3,"tid":"exchange_keep","ts":7345123396198,"dur":4,"ph":"X","name":"exchange_keep"},
{"pid":3,"tid":140172544658304,"ts":7345123464145,"dur":3844790,"ph":"X","name":"writefile"},
{"pid":4,"tid":140534018643520,"ts":7345115764333,"dur":525445,"ph":"X","name":"alloc"},
{"pid":4,"tid":140534027036224,"ts":7345115774353,"dur":523791,"ph":"X","name":"alloc"},
{"pid":4,"tid":140534010250816,"ts":7345115754325,"dur":561734,"ph":"X","name":"alloc"},
{"pid":4,"tid":140536517802880,"ts":7345116320061,"dur":203320,"ph":"X","name":"readfile"},
{"pid":4,"tid":140536517802880,"ts":7345116523406,"dur":2673568,"ph":"X","name":"presort"},
{"pid":4,"tid":"exchange_ext","ts":7345119196999,"dur":53,"ph":"X","name":"exchange_ext"},
{"pid":4,"tid":"exchange_keep","ts":7345119197055,"dur":20,"ph":"X","name":"exchange_keep"},
{"pid":4,"tid":140536517802880,"ts":7345119444620,"dur":0,"ph":"X","name":"precopy"},
{"pid":4,"tid":"recv_buf","ts":7345119444620,"dur":130945,"ph":"X","name":"recv_buf"},
{"pid":4,"tid":140536517802880,"ts":7345119575572,"dur":379599,"ph":"X","name":"merge"},
{"pid":4,"tid":"send_buf","ts":7345119444619,"dur":510576,"ph":"X","name":"send_buf"},
{"pid":4,"tid":"exchange_ext","ts":7345120259129,"dur":20,"ph":"X","name":"exchange_ext"},
{"pid":4,"tid":"exchange_keep","ts":7345120259156,"dur":5,"ph":"X","name":"exchange_keep"},
{"pid":4,"tid":140536517802880,"ts":7345120451922,"dur":0,"ph":"X","name":"precopy"},
{"pid":4,"tid":"recv_buf","ts":7345120451922,"dur":138240,"ph":"X","name":"recv_buf"},
{"pid":4,"tid":140536517802880,"ts":7345120590169,"dur":188519,"ph":"X","name":"merge"},
{"pid":4,"tid":"send_buf","ts":7345120451922,"dur":326791,"ph":"X","name":"send_buf"},
{"pid":4,"tid":"exchange_ext","ts":7345120784859,"dur":16,"ph":"X","name":"exchange_ext"},
{"pid":4,"tid":"exchange_keep","ts":7345120784878,"dur":4,"ph":"X","name":"exchange_keep"},
{"pid":4,"tid":140536517802880,"ts":7345121000565,"dur":0,"ph":"X","name":"precopy"},
{"pid":4,"tid":"recv_buf","ts":7345121000565,"dur":142543,"ph":"X","name":"recv_buf"},
{"pid":4,"tid":140536517802880,"ts":7345121143116,"dur":194566,"ph":"X","name":"merge"},
{"pid":4,"tid":"send_buf","ts":7345121000564,"dur":337139,"ph":"X","name":"send_buf"},
{"pid":4,"tid":"exchange_ext","ts":7345121475141,"dur":18,"ph":"X","name":"exchange_ext"},
{"pid":4,"tid":"exchange_keep","ts":7345121475165,"dur":4,"ph":"X","name":"exchange_keep"},
{"pid":4,"tid":140536517802880,"ts":7345121661708,"dur":0,"ph":"X","name":"precopy"},
{"pid":4,"tid":"recv_buf","ts":7345121661708,"dur":133384,"ph":"X","name":"recv_buf"},
{"pid":4,"tid":140536517802880,"ts":7345121795099,"dur":155723,"ph":"X","name":"merge"},
{"pid":4,"tid":"send_buf","ts":7345121661708,"dur":289132,"ph":"X","name":"send_buf"},
{"pid":4,"tid":"exchange_ext","ts":7345122113873,"dur":19,"ph":"X","name":"exchange_ext"},
{"pid":4,"tid":"exchange_keep","ts":7345122113896,"dur":5,"ph":"X","name":"exchange_keep"},
{"pid":4,"tid":140536517802880,"ts":7345122183486,"dur":52,"ph":"X","name":"precopy"},
{"pid":4,"tid":"recv_buf","ts":7345122183486,"dur":254165,"ph":"X","name":"recv_buf"},
{"pid":4,"tid":140536517802880,"ts":7345122437655,"dur":274403,"ph":"X","name":"merge"},
{"pid":4,"tid":"send_buf","ts":7345122183486,"dur":528588,"ph":"X","name":"send_buf"},
{"pid":4,"tid":"exchange_ext","ts":7345122712162,"dur":9,"ph":"X","name":"exchange_ext"},
{"pid":4,"tid":"exchange_keep","ts":7345122712173,"dur":4,"ph":"X","name":"exchange_keep"},
{"pid":4,"tid":"exchange_ext","ts":7345123059958,"dur":20,"ph":"X","name":"exchange_ext"},
{"pid":4,"tid":"exchange_keep","ts":7345123059982,"dur":4,"ph":"X","name":"exchange_keep"},
{"pid":4,"tid":"exchange_ext","ts":7345123396178,"dur":16,"ph":"X","name":"exchange_ext"},
{"pid":4,"tid":"exchange_keep","ts":7345123396198,"dur":4,"ph":"X","name":"exchange_keep"},
{"pid":4,"tid":140536517802880,"ts":7345123464146,"dur":2460382,"ph":"X","name":"writefile"},
{"pid":5,"tid":139692982801984,"ts":7345115754326,"dur":548679,"ph":"X","name":"alloc"},
{"pid":5,"tid":139692999587392,"ts":7345115774331,"dur":531481,"ph":"X","name":"alloc"},
{"pid":5,"tid":139692991194688,"ts":7345115764333,"dur":545722,"ph":"X","name":"alloc"},
{"pid":5,"tid":139695490354048,"ts":7345116320061,"dur":205515,"ph":"X","name":"readfile"},
{"pid":5,"tid":139695490354048,"ts":7345116525602,"dur":2593195,"ph":"X","name":"presort"},
{"pid":5,"tid":"exchange_ext","ts":7345119118841,"dur":78198,"ph":"X","name":"exchange_ext"},
{"pid":5,"tid":"exchange_keep","ts":7345119197045,"dur":30,"ph":"X","name":"exchange_keep"},
{"pid":5,"tid":139695490354048,"ts":7345119443920,"dur":0,"ph":"X","name":"precopy"},
{"pid":5,"tid":"recv_buf","ts":7345119443920,"dur":130284,"ph":"X","name":"recv_buf"},
{"pid":5,"tid":139695490354048,"ts":7345119574212,"dur":373587,"ph":"X","name":"merge"},
{"pid":5,"tid":"send_buf","ts":7345119443919,"dur":503904,"ph":"X","name":"send_buf"},
{"pid":5,"tid":"exchange_ext","ts":7345120259131,"dur":18,"ph":"X","name":"exchange_ext"},
{"pid":5,"tid":"exchange_keep","ts":7345120259156,"dur":15,"ph":"X","name":"exchange_keep"},
{"pid":5,"tid":139695490354048,"ts":7345120318228,"dur":0,"ph":"X","name":"precopy"},
{"pid":5,"tid":"recv_buf","ts":7345120318228,"dur":238331,"ph":"X","name":"recv_buf"},
{"pid":5,"tid":139695490354048,"ts":7345120556568,"dur":196373,"ph":"X","name":"merge"},
{"pid":5,"tid":"send_buf","ts":7345120318227,"dur":434740,"ph":"X","name":"send_buf"},
{"pid":5,"tid":"exchange_ext","ts":7345120784859,"dur":15,"ph":"X","name":"exchange_ext"},
{"pid":5,"tid":"exchange_keep","ts":7345120784878,"dur":4,"ph":"X","name":"exchange_keep"},
{"pid":5,"tid":139695490354048,"ts":7345120818205,"dur":0,"ph":"X","name":"precopy"},
{"pid":5,"tid":"recv_buf","ts":7345120818205,"dur":307017,"ph":"X","name":"recv_buf"},
{"pid":5,"tid":139695490354048,"ts":7345121125230,"dur":203301,"ph":"X","name":"merge"},
{"pid":5,"tid":"send_buf","ts":7345120818205,"dur":510354,"ph":"X","name":"send_buf"},
{"pid":5,"tid":"exchange_ext","ts":7345121475140,"dur":17,"ph":"X","name":"exchange_ext"},
{"pid":5,"tid":"exchange_keep","ts":7345121475161,"dur":7,"ph":"X","name":"exchange_keep"},
{"pid":5,"tid":139695490354048,"ts":7345121663953,"dur":39,"ph":"X","name":"precopy"},
{"pid":5,"tid":"recv_buf","ts":7345121663953,"dur":132597,"ph":"X","name":"recv_buf"},
{"pid":5,"tid":139695490354048,"ts":7345121796558,"dur":317241,"ph":"X","name":"merge"},
{"pid":5,"tid":"send_buf","ts":7345121663952,"dur":449868,"ph":"X","name":"send_buf"},
{"pid":5,"tid":"exchange_ext","ts":7345122113872,"dur":20,"ph":"X","name":"exchange_ext"},
{"pid":5,"tid":"exchange_keep","ts":7345122113895,"dur":5,"ph":"X","name":"exchange_keep"},
{"pid":5,"tid":139695490354048,"ts":7345122327308,"dur":0,"ph":"X","name":"precopy"},
{"pid":5,"tid":"recv_buf","ts":7345122327308,"dur":123125,"ph":"X","name":"recv_buf"},
{"pid":5,"tid":139695490354048,"ts":7345122450439,"dur":194417,"ph":"X","name":"merge"},
{"pid":5,"tid":"send_buf","ts":7345122327308,"dur":317565,"ph":"X","name":"send_buf"},
{"pid":5,"tid":"exchange_ext","ts":7345122712167,"dur":12,"ph":"X","name":"exchange_ext"},
{"pid":5,"tid":"exchange_keep","ts":7345122712182,"dur":6,"ph":"X","name":"exchange_keep"},
{"pid":5,"tid":139695490354048,"ts":7345122794693,"dur":30283,"ph":"X","name":"precopy"},
{"pid":5,"tid":"recv_buf","ts":7345122794693,"dur":96489,"ph":"X","name":"recv_buf"},
{"pid":5,"tid":139695490354048,"ts":7345122891189,"dur":152414,"ph":"X","name":"merge"},
{"pid":5,"tid":"send_buf","ts":7345122794692,"dur":248927,"ph":"X","name":"send_buf"},
{"pid":5,"tid":"exchange_ext","ts":7345123059957,"dur":21,"ph":"X","name":"exchange_ext"},
{"pid":5,"tid":"exchange_keep","ts":7345123059981,"dur":5,"ph":"X","name":"exchange_keep"},
{"pid":5,"tid":"exchange_ext","ts":7345123396179,"dur":15,"ph":"X","name":"exchange_ext"},
{"pid":5,"tid":"exchange_keep","ts":7345123396198,"dur":4,"ph":"X","name":"exchange_keep"},
{"pid":5,"tid":139695490354048,"ts":7345123396205,"dur":67860,"ph":"X","name":"precopy"},
{"pid":5,"tid":"recv_buf","ts":7345123396205,"dur":67907,"ph":"X","name":"recv_buf"},
{"pid":5,"tid":139695490354048,"ts":7345123464114,"dur":0,"ph":"X","name":"merge"},
{"pid":5,"tid":"send_buf","ts":7345123396205,"dur":67912,"ph":"X","name":"send_buf"},
{"pid":5,"tid":139695490354048,"ts":7345123464145,"dur":3840036,"ph":"X","name":"writefile"},
{"pid":6,"tid":140164058105408,"ts":7345115764333,"dur":523245,"ph":"X","name":"alloc"},
{"pid":6,"tid":140164066498112,"ts":7345115774331,"dur":520957,"ph":"X","name":"alloc"},
{"pid":6,"tid":140164049712704,"ts":7345115754330,"dur":560124,"ph":"X","name":"alloc"},
{"pid":6,"tid":140166557264768,"ts":7345116320061,"dur":206715,"ph":"X","name":"readfile"},
{"pid":6,"tid":140166557264768,"ts":7345116526791,"dur":2579923,"ph":"X","name":"presort"},
{"pid":6,"tid":"exchange_ext","ts":7345119106740,"dur":123419,"ph":"X","name":"exchange_ext"},
{"pid":6,"tid":"exchange_keep","ts":7345119230173,"dur":17,"ph":"X","name":"exchange_keep"},
{"pid":6,"tid":140166557264768,"ts":7345119239890,"dur":0,"ph":"X","name":"precopy"},
{"pid":6,"tid":"recv_buf","ts":7345119239890,"dur":123515,"ph":"X","name":"recv_buf"},
{"pid":6,"tid":140166557264768,"ts":7345119363413,"dur":380663,"ph":"X","name":"merge"},
{"pid":6,"tid":"send_buf","ts":7345119239889,"dur":508301,"ph":"X","name":"send_buf"},
{"pid":6,"tid":"exchange_ext","ts":7345120259131,"dur":17,"ph":"X","name":"exchange_ext"},
{"pid":6,"tid":"exchange_keep","ts":7345120259167,"dur":6,"ph":"X","name":"exchange_keep"},
{"pid":6,"tid":140166557264768,"ts":7345120432829,"dur":0,"ph":"X","name":"precopy"},
{"pid":6,"tid":"recv_buf","ts":7345120432829,"dur":172463,"ph":"X","name":"recv_buf"},
{"pid":6,"tid":140166557264768,"ts":7345120605300,"dur":179483,"ph":"X","name":"merge"},
{"pid":6,"tid":"send_buf","ts":7345120432829,"dur":351974,"ph":"X","name":"send_buf"},
{"pid":6,"tid":"exchange_ext","ts":7345120784858,"dur":15,"ph":"X","name":"exchange_ext"},
{"pid":6,"tid":"exchange_keep","ts":7345120784875,"dur":8,"ph":"X","name":"exchange_keep"},
{"pid":6,"tid":140166557264768,"ts":7345120794965,"dur":5,"ph":"X","name":"precopy"},
{"pid":6,"tid":"recv_buf","ts":7345120794965,"dur":125927,"ph":"X","name":"recv_buf"},
{"pid":6,"tid":140166557264768,"ts":7345120920902,"dur":365401,"ph":"X","name":"merge"},
{"pid":6,"tid":"send_buf","ts":7345120794965,"dur":491371,"ph":"X","name":"send_buf"},
{"pid":6,"tid":"exchange_ext","ts":7345121475140,"dur":21,"ph":"X","name":"exchange_ext"},
{"pid":6,"tid":"exchange_keep","ts":7345121475164,"dur":4,"ph":"X","name":"exchange_keep"},
{"pid":6,"tid":140166557264768,"ts":7345121507960,"dur":0,"ph":"X","name":"precopy"},
{"pid":6,"tid":"recv_buf","ts":7345121507960,"dur":278331,"ph":"X","name":"recv_buf"},
{"pid":6,"tid":140166557264768,"ts":7345121786299,"dur":221780,"ph":"X","name":"merge"},
{"pid":6,"tid":"send_buf","ts":7345121507960,"dur":500143,"ph":"X","name":"send_buf"},
{"pid":6,"tid":"exchange_ext","ts":7345122113874,"dur":24,"ph":"X","name":"exchange_ext"},
{"pid":6,"tid":"exchange_keep","ts":7345122113901,"dur":8,"ph":"X","name":"exchange_keep"},
{"pid":6,"tid":140166557264768,"ts":7345122119138,"dur":69828,"ph":"X","name":"precopy"},
{"pid":6,"tid":"recv_buf","ts":7345122119138,"dur":127615,"ph":"X","name":"recv_buf"},
{"pid":6,"tid":140166557264768,"ts":7345122246761,"dur":136449,"ph":"X","name":"merge"},
{"pid":6,"tid":"send_buf","ts":7345122119137,"dur":264098,"ph":"X","name":"send_buf"},
{"pid":6,"tid":"exchange_ext","ts":7345122712168,"dur":14,"ph":"X","name":"exchange_ext"},
{"pid":6,"tid":"exchange_keep","ts":7345122712186,"dur":4,"ph":"X","name":"exchange_keep"},
{"pid":6,"tid":140166557264768,"ts":7345122735373,"dur":0,"ph":"X","name":"precopy"},
{"pid":6,"tid":"recv_buf","ts":7345122735373,"dur":127798,"ph":"X","name":"recv_buf"},
{"pid":6,"tid":140166557264768,"ts":7345122863179,"dur":196715,"ph":"X","name":"merge"},
{"pid":6,"tid":"send_buf","ts":7345122735373,"dur":324542,"ph":"X","name":"send_buf"},
{"pid":6,"tid":"exchange_ext","ts":7345123060001,"dur":13,"ph":"X","name":"exchange_ext"},
{"pid":6,"tid":"exchange_keep","ts":7345123060016,"dur":20,"ph":"X","name":"exchange_keep"},
{"pid":6,"tid":140166557264768,"ts":7345123063755,"dur":72758,"ph":"X","name":"precopy"},
{"pid":6,"tid":"recv_buf","ts":7345123063755,"dur":111123,"ph":"X","name":"recv_buf"},
{"pid":6,"tid":140166557264768,"ts":7345123174886,"dur":67497,"ph":"X","name":"merge"},
{"pid":6,"tid":"send_buf","ts":7345123063754,"dur":178665,"ph":"X","name":"send_buf"},
{"pid":6,"tid":"exchange_ext","ts":7345123396178,"dur":16,"ph":"X","name":"exchange_ext"},
{"pid":6,"tid":"exchange_keep","ts":7345123396198,"dur":4,"ph":"X","name":"exchange_keep"},
{"pid":6,"tid":140166557264768,"ts":7345123464146,"dur":3840053,"ph":"X","name":"writefile"},
{"pid":7,"tid":140101539825216,"ts":7345129717648,"dur":442750,"ph":"X","name":"alloc"},
{"pid":7,"tid":140101531432512,"ts":7345129725091,"dur":444422,"ph":"X","name":"alloc"},
{"pid":7,"tid":140101523039808,"ts":7345129722312,"dur":470558,"ph":"X","name":"alloc"},
{"pid":7,"tid":140101569710976,"ts":7345130304501,"dur":305050,"ph":"X","name":"readfile"},
{"pid":7,"tid":140101569710976,"ts":7345130609575,"dur":2604952,"ph":"X","name":"presort"},
{"pid":7,"tid":"exchange_ext","ts":7345133214551,"dur":49,"ph":"X","name":"exchange_ext"},
{"pid":7,"tid":"exchange_keep","ts":7345133214605,"dur":15,"ph":"X","name":"exchange_keep"},
{"pid":7,"tid":140101569710976,"ts":7345133225016,"dur":0,"ph":"X","name":"precopy"},
{"pid":7,"tid":"recv_buf","ts":7345133225016,"dur":129631,"ph":"X","name":"recv_buf"},
{"pid":7,"tid":140101569710976,"ts":7345133354653,"dur":371984,"ph":"X","name":"merge"},
{"pid":7,"tid":"send_buf","ts":7345133225016,"dur":501642,"ph":"X","name":"send_buf"},
{"pid":7,"tid":"exchange_ext","ts":7345134769293,"dur":13,"ph":"X","name":"exchange_ext"},
{"pid":7,"tid":"exchange_keep","ts":7345134769315,"dur":6,"ph":"X","name":"exchange_keep"},
{"pid":7,"tid":140101569710976,"ts":7345134779484,"dur":0,"ph":"X","name":"precopy"},
{"pid":7,"tid":"recv_buf","ts":7345134779484,"dur":122389,"ph":"X","name":"recv_buf"},
{"pid":7,"tid":140101569710976,"ts":7345134901879,"dur":327458,"ph":"X","name":"merge"},
{"pid":7,"tid":"send_buf","ts":7345134779484,"dur":456319,"ph":"X","name":"send_buf"},
{"pid":7,"tid":"exchange_ext","ts":7345136098321,"dur":15,"ph":"X","name":"exchange_ext"},
{"pid":7,"tid":"exchange_keep","ts":7345136098341,"dur":5,"ph":"X","name":"exchange_keep"},
{"pid":7,"tid":140101569710976,"ts":7345136103238,"dur":0,"ph":"X","name":"precopy"},
{"pid":7,"tid":"recv_buf","ts":7345136103238,"dur":57195,"ph":"X","name":"recv_buf"},
{"pid":7,"tid":140101569710976,"ts":7345136160436,"dur":279065,"ph":"X","name":"merge"},
{"pid":7,"tid":"send_buf","ts":7345136103237,"dur":338424,"ph":"X","name":"send_buf"},
{"pid":7,"tid":"exchange_ext","ts":7345137044405,"dur":43,"ph":"X","name":"exchange_ext"},
{"pid":7,"tid":"exchange_keep","ts":7345137044469,"dur":6,"ph":"X","name":"exchange_keep"},
{"pid":7,"tid":140101569710976,"ts":7345137048573,"dur":0,"ph":"X","name":"precopy"},
{"pid":7,"tid":"recv_buf","ts":7345137048573,"dur":36639,"ph":"X","name":"recv_buf"},
{"pid":7,"tid":140101569710976,"ts":7345137085215,"dur":249172,"ph":"X","name":"merge"},
{"pid":7,"tid":"send_buf","ts":7345137048573,"dur":287621,"ph":"X","name":"send_buf"},
{"pid":7,"tid":140101569710976,"ts":7345137448582,"dur":922263,"ph":"X","name":"writefile"},
